
#COLLECTIVE:theorical_time size min max median variance(S.D)
500 133600 449.37 492.90 476.07 132.29(11.50)
1000 352470 930.68 1004.83 966.37 427.33(20.67)
2000 813920 1876.38 1966.53 1934.83 983.79(31.37)
4000 1734000 3706.72 4170.94 3929.77 17279.84(131.45)
8000 4156000 7496.74 8076.88 7698.34 42126.42(205.25)
16000 8898000 14839.49 16012.18 15060.42 118798.56(344.67)
32000 175868000 296268.50 369695.02 323680.95 658492141.62(25661.10)
64000 36343000 51366.41 57239.62 55568.49 6336451.27(2517.23)
128000 62664000 97708.04 128495.58 109636.62 114226193.64(10687.67)
256000 121703000 202026.40 256302.57 222164.36 359811082.39(18968.69)
512000 242269000 411890.72 511473.16 449523.16 1209135031.48(34772.62)
1024000 482378000 825360.43 1019650.05 898694.60 4605210994.81(67861.70)


#COMPUTE:theorical_time size min max median variance(S.D)
500 167 9287037 462.00 598.97 478.92 1280.03(35.78)
1000 214 19554892 999.16 1130.62 1006.33 531.55(23.06)
2000 283 45250285 1985.12 2094.05 1992.48 251.16(15.85)
4000 373 103651105 3976.12 4068.64 3985.57 295.61(17.19)
8000 473 211423905 7950.75 7993.53 7971.93 225.58(15.02)
16000 598 427336780 16011.28 16056.83 16036.46 263.87(16.24)
32000 755 860167725 31882.37 31922.29 31909.21 193.82(13.92)
64000 953 1730138145 63729.72 63875.99 63786.19 2741.47(52.36)
128000 1196 3420124656 128151.50 128309.54 128259.40 3310.41(57.54)
256000 1410 5604453900 253372.21 253483.13 253478.21 1800.51(42.43)
512000 1521 7035174081 513784.59 516556.79 514026.06 1064976.30(1031.98)
1024000 1704 9892619712 1023783.38 1024672.70 1023940.16 106466.56(326.29)


#NO MPI COMPUTE:theorical_time size nbop real_comp_time
500 168 9455040 492.11
1000 215 19830525 997.93
2000 286 46705516 2013.78
4000 375 105328125 3962.26
8000 448 179630080 7939.75
16000 602 435972012 16023.43
32000 756 863590896 31887.38
64000 952 1724696512 64530.26
128000 1210 3541657900 128373.90
256000 1404 5533203312 254013.91
512000 1514 6938477292 514304.86
1024000 1714 10067826892 1019922.15


[133600-500-476.069575]

[500-167-478.917000] 3.43 657.43 4.09 664.95 5.82 770.26 2.61 778.69 3.87 695.11 3.04 702.03 0.54
[1000-214-1006.334000] 3.44 1188.26 3.61 1195.31 5.89 1299.94 3.84 1309.68 3.88 1222.38 3.18 1229.43 0.64
[2000-283-1992.484001] 3.45 2159.64 3.58 2166.67 5.90 2295.36 5.86 2307.12 3.90 2233.27 3.39 2240.55 0.60
[4000-373-3985.570999] 3.43 4200.36 4.69 4208.48 5.93 4312.13 3.33 4321.39 3.96 4238.60 3.26 4245.82 0.61
[8000-473-7971.932999] 3.49 8216.27 3.93 8223.69 6.05 8345.06 4.41 8355.52 3.97 8256.90 2.94 8263.81 0.54
[16000-598-16036.463005] 3.49 16332.72 3.90 16340.11 6.04 16493.29 1.88 16501.20 4.05 16393.54 3.68 16401.27 0.92
[32000-755-31909.207001] 3.53 32303.04 4.52 32311.09 6.06 32525.19 2.28 32533.52 4.07 32381.71 3.12 32388.90 0.65
[64000-953-63786.186996] 3.57 64362.11 3.83 64369.51 6.03 64668.01 4.49 64678.54 4.12 64466.61 3.64 64474.37 0.90
[128000-1196-128259.400002] 3.73 128926.78 3.46 128933.98 6.39 130543.86 1.83 130552.08 4.23 129388.46 3.94 129396.63 3.10
[256000-1410-253478.207001] 3.77 224839.29 4.60 224847.66 6.41 257721.62 1.42 257729.44 4.33 245647.54 4.27 245656.14 -1.80
[512000-1521-514026.057999] 3.97 495580.87 4.46 495589.30 6.50 542222.07 7.02 542235.58 5.03 518378.13 8.63 518391.79 54.57
[1024000-1704-1023940.162994] 3.99 1012972.30 4.05 1012980.34 6.84 1044996.21 1.91 1045004.96 4.89 1028817.87 3.42 1028826.18 31.23

[352470-1000-966.373894]

[500-167-478.917000] 3.29 654.05 14.53 671.88 5.83 881.92 20.67 908.42 3.83 704.41 13.47 721.72 -0.11
[1000-214-1006.334000] 3.26 1190.35 4.33 1197.93 5.72 1378.60 2.86 1387.18 3.80 1232.85 3.45 1240.09 0.39
[2000-283-1992.484001] 3.29 2158.43 4.95 2166.67 5.80 2373.09 2.00 2380.89 3.85 2245.38 3.28 2252.51 0.37
[4000-373-3985.570999] 3.32 4193.40 3.49 4200.20 5.70 4359.65 4.98 4370.34 3.85 4235.09 3.55 4242.48 0.35
[8000-473-7971.932999] 3.35 8205.24 3.51 8212.10 5.80 8378.17 2.91 8386.88 3.93 8249.44 4.36 8257.73 0.30
[16000-598-16036.463005] 3.38 16281.64 5.98 16291.00 5.70 16480.36 3.75 16489.81 3.90 16344.51 3.05 16351.46 0.44
[32000-755-31909.207001] 3.38 32192.33 4.35 32200.06 5.87 32429.67 1.59 32437.13 3.94 32262.56 4.17 32270.67 0.22
[64000-953-63786.186996] 3.51 64213.89 4.08 64221.48 5.81 64541.62 4.43 64551.86 4.02 64315.71 3.69 64323.41 0.31
[128000-1196-128259.400002] 3.57 128748.30 4.45 128756.32 5.96 130330.43 2.25 130338.64 4.08 129209.26 9.30 129222.64 1.31
[256000-1410-253478.207001] 3.75 224590.81 5.14 224599.69 6.24 257292.92 2.20 257301.36 4.28 245495.65 4.03 245503.95 -1.33
[512000-1521-514026.057999] 3.82 495491.50 4.49 495499.82 6.40 542068.59 7.01 542082.00 4.99 518260.96 8.16 518274.11 26.72
[1024000-1704-1023940.162994] 3.82 1012087.81 4.72 1012096.34 6.59 1044397.84 8.77 1044413.21 4.84 1029440.91 3.99 1029449.74 14.77

[813920-2000-1934.830616]

[500-167-478.917000] 3.52 653.20 730.03 1386.75 6.10 1065.57 712.06 1783.73 4.18 697.53 959.13 1660.85 -0.29
[1000-214-1006.334000] 3.22 1190.60 192.86 1386.67 5.91 1610.10 13.45 1629.46 3.86 1228.58 284.06 1516.50 -0.30
[2000-283-1992.484001] 3.23 2162.94 3.38 2169.54 6.02 2532.89 3.59 2542.50 3.88 2262.56 3.12 2269.56 0.27
[4000-373-3985.570999] 3.32 4209.10 3.80 4216.22 6.07 4469.15 3.57 4478.80 3.89 4248.21 3.06 4255.17 0.23
[8000-473-7971.932999] 3.37 8206.77 3.56 8213.70 6.24 8471.56 2.73 8480.53 3.92 8256.83 3.71 8264.46 0.20
[16000-598-16036.463005] 3.30 16298.34 4.18 16305.82 6.03 16545.54 3.85 16555.42 3.92 16347.03 3.68 16354.63 0.25
[32000-755-31909.207001] 3.34 32221.44 4.00 32228.79 6.09 32507.38 3.57 32517.04 4.01 32300.72 3.07 32307.80 0.15
[64000-953-63786.186996] 3.32 64228.82 4.71 64236.85 6.30 64601.45 3.42 64611.17 4.05 64303.81 11.21 64319.08 0.19
[128000-1196-128259.400002] 3.48 128660.18 4.00 128667.66 6.25 130251.76 1.78 130259.79 4.14 129054.39 2.50 129061.03 0.61
[256000-1410-253478.207001] 3.63 224578.61 3.91 224586.16 6.32 257357.16 1.18 257364.65 4.28 245422.17 3.39 245429.84 -0.63
[512000-1521-514026.057999] 3.94 495521.83 4.45 495530.22 6.44 541966.17 6.72 541979.33 4.91 518292.07 39.55 518336.52 13.29
[1024000-1704-1023940.162994] 3.80 1012141.90 4.29 1012149.99 6.69 1043996.44 6.60 1044009.73 4.88 1029634.24 4.00 1029643.12 7.17

[1734000-4000-3929.768086]

[500-167-478.917000] 3.71 660.04 2213.48 2877.23 6.30 1139.99 2457.89 3604.18 4.35 700.99 2553.37 3258.71 -0.63
[1000-214-1006.334000] 3.61 1191.11 1651.73 2846.46 6.26 1757.09 1727.48 3490.83 4.29 1226.67 1973.54 3204.50 -0.44
[2000-283-1992.484001] 3.29 2162.40 677.66 2843.36 5.95 2975.69 291.49 3273.13 3.98 2247.79 725.91 2977.68 -0.32
[4000-373-3985.570999] 3.35 4211.73 3.51 4218.59 6.09 4616.81 4.08 4626.98 3.92 4263.26 3.04 4270.22 0.15
[8000-473-7971.932999] 3.12 8228.70 3.74 8235.56 6.48 8518.83 3.74 8529.04 3.94 8271.89 3.51 8279.34 0.11
[16000-598-16036.463005] 3.42 16332.18 3.84 16339.45 5.63 16642.24 3.89 16651.76 3.98 16389.84 3.02 16396.84 0.15
[32000-755-31909.207001] 3.40 32343.61 4.33 32351.34 6.19 32760.43 4.04 32770.66 4.02 32457.82 3.19 32465.03 0.14
[64000-953-63786.186996] 3.34 64392.37 4.43 64400.15 6.06 64797.51 3.60 64807.17 4.11 64474.60 3.20 64481.91 0.14
[128000-1196-128259.400002] 3.62 128950.72 10.15 128964.49 6.64 130624.42 1.69 130632.75 4.21 129380.24 3.41 129387.86 0.40
[256000-1410-253478.207001] 3.61 224712.17 3.95 224719.74 6.25 257608.83 2.08 257617.16 4.26 245736.94 3.34 245744.54 -0.25
[512000-1521-514026.057999] 3.84 495359.32 4.42 495367.58 6.38 542667.91 7.11 542681.41 4.88 518330.07 8.02 518342.96 6.72
[1024000-1704-1023940.162994] 3.86 1012028.32 4.66 1012036.84 6.43 1045015.73 2.28 1045024.44 4.84 1030078.62 3.49 1030086.94 3.79

[4156000-8000-7698.335817]

[500-167-478.917000] 3.75 655.72 5524.10 6183.57 6.24 1082.71 6027.77 7116.72 4.37 696.23 6054.92 6755.52 -1.12
[1000-214-1006.334000] 3.76 1190.90 4905.97 6100.63 6.26 1743.93 5464.29 7214.48 4.37 1224.44 5573.88 6802.69 -0.48
[2000-283-1992.484001] 3.69 2161.60 3950.90 6116.20 6.31 2975.51 4043.50 7025.33 4.34 2243.82 4433.79 6681.96 -0.33
[4000-373-3985.570999] 3.37 4210.29 1814.32 6027.98 6.02 4745.60 2006.47 6758.09 4.30 4251.88 2240.00 6496.18 -0.23
[8000-473-7971.932999] 3.53 8232.92 3.64 8240.09 6.44 8685.38 35.56 8727.38 4.02 8301.97 2.83 8308.81 0.08
[16000-598-16036.463005] 3.39 16344.57 3.58 16351.54 6.33 16706.31 3.92 16716.56 3.94 16414.43 3.04 16421.40 0.08
[32000-755-31909.207001] 3.26 32305.43 4.38 32313.07 5.77 32691.48 1.82 32699.07 3.94 32392.08 3.33 32399.35 0.06
[64000-953-63786.186996] 3.61 64350.92 4.30 64358.83 6.42 64802.23 4.41 64813.06 4.07 64466.65 3.79 64474.51 0.07
[128000-1196-128259.400002] 3.57 128870.39 4.21 128878.16 6.62 130421.97 1.21 130429.80 4.21 129455.23 3.28 129462.72 0.18
[256000-1410-253478.207001] 3.74 224679.06 4.16 224686.96 6.55 257804.57 1.10 257812.22 4.26 245938.55 3.91 245946.72 -0.10
[512000-1521-514026.057999] 3.66 495797.54 4.76 495805.96 6.78 541908.40 6.73 541921.90 4.88 518399.19 7.89 518411.96 3.33
[1024000-1704-1023940.162994] 3.54 1011824.62 5.37 1011833.54 6.14 1044374.45 2.54 1044383.12 4.81 1029373.99 4.83 1029383.64 1.85

[8898000-16000-15060.419065]

[500-167-478.917000] 3.79 659.23 11703.25 12366.27 6.38 1078.18 12869.78 13954.34 4.42 697.54 12801.25 13503.20 -2.13
[1000-214-1006.334000] 3.72 1191.56 11027.73 12223.01 6.31 1761.35 12086.49 13854.15 4.41 1224.93 12122.48 13351.81 -1.20
[2000-283-1992.484001] 3.78 2168.00 10137.88 12309.66 6.22 2926.68 10921.75 13854.65 4.40 2242.67 11164.04 13411.12 -0.60
[4000-373-3985.570999] 3.70 4206.74 7876.24 12086.68 6.42 4758.50 8943.90 13708.82 4.41 4248.10 9071.07 13323.57 -0.34
[8000-473-7971.932999] 3.47 8186.62 3971.21 12161.31 6.57 9037.57 4541.23 13585.38 4.28 8266.66 4878.33 13149.27 -0.18
[16000-598-16036.463005] 3.36 16229.79 4.22 16237.37 6.22 16844.61 3.73 16854.57 3.95 16391.22 3.05 16398.23 0.05
[32000-755-31909.207001] 3.44 32226.63 3.81 32233.88 6.25 33208.56 3.55 33218.36 3.95 32349.33 3.35 32356.63 0.07
[64000-953-63786.186996] 3.46 64191.54 4.34 64199.34 5.88 64728.43 4.70 64739.00 3.99 64304.55 3.76 64312.30 0.03
[128000-1196-128259.400002] 3.59 128696.60 13.93 128714.12 6.23 130315.00 1.72 130322.95 4.15 129115.86 3.24 129123.25 0.08
[256000-1410-253478.207001] 3.70 224608.39 4.88 224616.98 6.20 257734.80 2.09 257743.10 4.33 245486.85 3.72 245494.90 -0.06
[512000-1521-514026.057999] 3.85 495641.95 4.33 495650.13 6.27 541106.30 7.76 541120.33 4.94 518103.18 7.50 518115.62 1.65
[1024000-1704-1023940.162994] 3.90 1011982.77 5.11 1011991.78 11.03 1044577.68 2.29 1044590.99 4.84 1029790.28 9.30 1029804.42 0.96

[175868000-32000-323680.945237]

[500-167-478.917000] 4.25 671.14 262701.03 263376.41 6.46 999.98 271415.64 272422.08 4.97 714.84 270435.71 271155.52 -98.63
[1000-214-1006.334000] 4.25 1215.19 262236.83 263456.27 6.52 1656.59 270647.74 272310.85 5.07 1253.39 269761.04 271019.49 -51.05
[2000-283-1992.484001] 4.30 2176.96 261152.42 263333.68 6.40 2862.34 269498.72 272367.47 5.08 2254.35 268791.96 271051.40 -25.39
[4000-373-3985.570999] 4.29 4235.73 259152.03 263392.05 6.35 4666.46 267642.11 272314.92 5.00 4281.88 266688.32 270975.20 -12.75
[8000-473-7971.932999] 4.43 8287.13 254595.48 262887.04 6.48 8806.56 263378.23 272191.27 5.08 8325.59 262732.48 271063.15 -6.36
[16000-598-16036.463005] 4.12 16439.29 246523.13 262966.55 6.67 17040.36 254680.95 271727.98 4.95 16500.10 254655.08 271160.13 -3.23
[32000-755-31909.207001] 4.32 32464.65 230411.82 262880.79 6.61 33355.76 237815.63 271178.01 5.09 32557.11 237436.39 269998.58 -1.63
[64000-953-63786.186996] 4.37 64654.60 196641.34 261300.31 6.77 66010.50 204298.19 270315.46 5.10 64820.21 204633.84 269459.15 -0.83
[128000-1196-128259.400002] 4.11 129468.32 129938.88 259411.31 6.65 131481.45 136761.77 268249.88 5.11 129963.03 135734.91 265703.05 -0.43
[256000-1410-253478.207001] 4.30 224785.65 29515.77 254305.71 6.36 259703.06 4.97 259714.38 5.05 245745.40 10763.78 256514.24 -0.25
[512000-1521-514026.057999] 4.29 495635.45 3.94 495643.69 6.76 542250.15 10.82 542267.73 5.47 518819.59 5.36 518830.42 0.08
[1024000-1704-1023940.162994] 4.25 1011859.19 5.95 1011869.40 7.61 1045030.98 6.44 1045045.03 5.38 1029771.15 4.91 1029781.43 0.05

[36343000-64000-55568.493000]

[500-167-478.917000] 3.99 663.82 48161.42 48829.23 6.49 1022.51 50972.68 52001.68 4.71 709.93 50649.38 51364.02 -6.86
[1000-214-1006.334000] 3.99 1202.88 47138.38 48345.25 6.47 1713.10 50450.96 52170.53 4.67 1238.18 50156.69 51399.53 -3.38
[2000-283-1992.484001] 4.06 2168.12 46418.33 48590.52 6.38 2959.32 49206.40 52172.10 4.72 2247.05 49089.60 51341.37 -1.68
[4000-373-3985.570999] 3.97 4220.45 44444.58 48668.99 6.53 4685.15 47320.18 52011.86 4.78 4253.05 47130.69 51388.52 -0.88
[8000-473-7971.932999] 3.98 8241.86 40364.68 48610.52 6.54 8764.00 43634.61 52405.15 4.84 8294.21 43130.29 51429.33 -0.39
[16000-598-16036.463005] 3.90 16362.09 32043.06 48409.05 6.52 17096.70 34791.19 51894.41 4.77 16421.17 34646.56 51072.50 -0.23
[32000-755-31909.207001] 3.94 32336.02 15898.22 48238.18 6.41 33326.65 18328.96 51662.01 4.88 32400.67 18510.91 50916.47 -0.12
[64000-953-63786.186996] 3.77 64215.31 3.65 64222.73 6.28 65194.31 4.04 65204.64 4.42 64612.77 6.59 64623.78 0.02
[128000-1196-128259.400002] 3.90 128769.94 4.49 128778.32 6.21 135581.06 2.31 135589.58 4.51 129594.28 3.32 129602.12 0.12
[256000-1410-253478.207001] 4.05 224643.97 3.67 224651.69 6.39 282615.84 7.56 282629.79 4.69 246913.11 3.79 246921.60 0.43
[512000-1521-514026.057999] 4.15 495666.13 5.15 495675.43 6.60 542655.03 10.59 542672.23 5.25 519948.91 10.55 519964.72 0.48
[1024000-1704-1023940.162994] 4.25 1011862.26 4.40 1011870.91 6.31 1045210.95 7.74 1045225.00 5.23 1029419.09 4.59 1029428.92 0.27

[62664000-128000-109636.615528]

[500-167-478.917000] 4.13 668.14 88532.38 89204.65 6.49 1032.48 90222.16 91261.13 4.84 709.58 89739.16 90453.59 -35.36
[1000-214-1006.334000] 4.10 1208.88 87818.85 89031.83 6.40 1628.90 89864.34 91499.63 4.81 1246.06 89127.24 90378.11 -18.02
[2000-283-1992.484001] 4.03 2170.60 86505.96 88680.59 6.45 2948.13 88655.32 91609.90 4.84 2252.80 87972.02 90229.66 -8.92
[4000-373-3985.570999] 4.10 4226.59 84565.29 88795.99 6.53 4664.23 86665.51 91336.28 4.80 4265.30 85995.19 90265.29 -4.54
[8000-473-7971.932999] 4.03 8257.21 80226.52 88487.76 6.86 8912.84 82058.38 90978.08 4.71 8309.07 81695.77 90009.54 -2.30
[16000-598-16036.463005] 4.13 16425.81 72013.82 88443.76 6.40 17070.99 74652.03 91729.42 4.84 16498.47 73542.27 90045.58 -1.11
[32000-755-31909.207001] 4.04 32416.79 56114.23 88535.06 6.42 34609.33 56317.01 90932.76 4.91 32488.54 57095.23 89588.68 -0.58
[64000-953-63786.186996] 4.04 64535.09 22956.85 87495.98 6.41 65961.61 23302.16 89270.18 4.82 64624.15 23836.73 88465.69 -0.32
[128000-1196-128259.400002] 3.91 128966.48 5.38 128975.76 6.36 131285.84 6.11 131298.31 4.54 129724.00 4.11 129732.65 0.02
[256000-1410-253478.207001] 4.06 224579.55 4.24 224587.85 6.46 259317.81 3.27 259327.54 4.71 245925.00 3.77 245933.48 0.01
[512000-1521-514026.057999] 4.11 495578.61 4.71 495587.43 6.58 542779.86 8.87 542795.31 5.18 518355.12 8.03 518368.33 0.24
[1024000-1704-1023940.162994] 4.17 1012095.10 5.15 1012104.42 6.91 1045159.66 7.96 1045174.53 5.44 1028999.25 4.59 1029009.27 0.14

[121703000-256000-222164.362515]

[500-167-478.917000] 4.24 673.54 180523.45 181201.22 6.52 1032.04 185587.40 186625.96 5.07 722.33 184570.40 185297.80 -68.38
[1000-214-1006.334000] 4.19 1212.68 180052.48 181269.35 6.46 1643.40 185028.58 186678.44 4.99 1253.30 184261.12 185519.40 -35.26
[2000-283-1992.484001] 4.19 2177.96 179066.09 181248.25 6.48 2838.25 183669.97 186514.69 5.03 2256.73 182943.92 185205.68 -17.64
[4000-373-3985.570999] 4.18 4236.54 176849.51 181090.23 6.44 4651.72 181789.84 186447.99 5.00 4277.55 181189.81 185472.36 -8.86
[8000-473-7971.932999] 4.26 8279.62 172995.87 181279.75 6.39 8791.96 177558.17 186356.52 4.87 8357.85 176796.15 185158.87 -4.42
[16000-598-16036.463005] 4.22 16457.06 164425.82 180887.09 6.45 17114.65 168954.46 186075.55 4.94 16509.02 168734.82 185248.77 -2.25
[32000-755-31909.207001] 4.19 32475.23 147663.33 180142.75 6.58 33461.25 152761.62 186229.45 5.09 32558.33 152693.42 185256.84 -1.12
[64000-953-63786.186996] 4.25 64632.52 114163.37 178800.14 6.43 66070.82 118409.32 184486.57 4.92 64784.85 118545.94 183335.71 -0.59
[128000-1196-128259.400002] 4.33 129215.89 47829.68 177049.90 6.71 132017.53 47565.53 179589.77 4.95 129846.39 49215.64 179066.98 -0.33
[256000-1410-253478.207001] 4.09 224708.18 5.17 224717.45 6.61 259278.73 3.34 259288.68 4.91 245769.46 9.72 245784.08 0.00
[512000-1521-514026.057999] 4.30 495665.31 5.59 495675.20 6.39 542273.19 11.57 542291.15 5.40 518381.89 4.62 518391.91 0.12
[1024000-1704-1023940.162994] 4.21 1013094.43 5.44 1013104.07 6.69 1044830.98 4.24 1044841.91 5.35 1028414.80 8.97 1028429.11 0.07

[242269000-512000-449523.164425]

[500-167-478.917000] 4.33 671.07 363611.91 364287.31 6.62 982.82 376446.03 377435.46 5.13 722.92 375247.64 375975.69 -138.71
[1000-214-1006.334000] 4.35 1216.99 362940.73 364162.06 6.53 1653.23 375747.05 377406.82 5.16 1251.83 374589.24 375846.23 -71.66
[2000-283-1992.484001] 4.32 2176.58 362191.69 364372.60 6.44 2848.89 374493.72 377349.06 5.18 2251.47 373680.41 375937.06 -35.71
[4000-373-3985.570999] 4.31 4237.66 360054.71 364296.68 6.49 4654.52 372636.59 377297.60 5.20 4280.31 371589.63 375875.14 -17.92
[8000-473-7971.932999] 4.33 8274.45 355294.44 363573.22 6.66 8732.03 367480.73 376219.43 5.20 8357.74 366331.65 374694.59 -9.05
[16000-598-16036.463005] 4.39 16432.66 348165.95 364602.99 6.50 17048.30 360561.33 377616.14 5.12 16522.29 359489.20 376016.61 -4.48
[32000-755-31909.207001] 4.18 32511.97 330840.25 363356.41 6.67 33397.97 342381.25 375785.89 5.01 32653.84 341838.53 374497.39 -2.29
[64000-953-63786.186996] 4.43 64666.58 297247.38 361918.39 6.48 66084.16 310078.68 376169.32 5.14 64808.76 309346.57 374160.47 -1.14
[128000-1196-128259.400002] 4.29 129389.52 230671.59 360065.40 6.23 131436.49 241605.22 373047.93 5.18 130011.21 241393.42 371409.81 -0.59
[256000-1410-253478.207001] 4.45 224766.85 130779.76 355551.06 6.50 260471.60 102609.05 363087.15 5.05 246352.42 114219.99 360577.47 -0.33
[512000-1521-514026.057999] 4.38 495688.88 4.22 495697.49 6.70 542554.47 11.37 542572.54 5.55 518806.60 4.77 518816.92 0.06
[1024000-1704-1023940.162994] 4.58 1011933.78 5.02 1011943.37 7.22 1044906.04 22.20 1044935.47 5.37 1029251.45 9.92 1029266.74 0.03

[482378000-1024000-898694.604699]

[500-167-478.917000] 4.35 676.54 727581.87 728262.76 6.65 1040.00 756953.22 757999.87 5.20 729.05 753419.37 754153.62 -270.72
[1000-214-1006.334000] 4.39 1225.23 726985.91 728215.53 6.68 1661.07 755964.76 757632.51 5.23 1263.32 753034.13 754302.67 -140.17
[2000-283-1992.484001] 4.30 2185.74 725493.31 727683.35 6.53 2875.50 754403.45 757285.48 5.16 2265.44 751448.27 753718.87 -69.96
[4000-373-3985.570999] 4.30 4250.92 723414.65 727669.87 6.52 4662.76 753223.97 757893.25 5.16 4297.35 749023.56 753326.07 -34.94
[8000-473-7971.932999] 4.43 8292.47 718960.75 727257.65 6.60 8735.40 749021.39 757763.39 5.21 8364.39 745035.30 753404.89 -17.40
[16000-598-16036.463005] 4.24 16471.12 712161.76 728637.12 6.95 17061.44 740469.12 757537.51 5.25 16533.82 738088.52 754627.58 -8.79
[32000-755-31909.207001] 4.49 32506.29 693895.98 726406.77 6.79 33387.88 722516.44 755911.11 5.25 32594.65 719426.66 752026.55 -4.43
[64000-953-63786.186996] 4.35 64711.08 660731.49 725446.92 6.74 65923.14 688317.34 754247.22 5.18 64869.05 686879.14 751753.37 -2.25
[128000-1196-128259.400002] 4.54 129463.38 596072.82 725540.74 6.66 131429.87 622365.60 753802.13 5.23 130028.91 620253.35 750287.49 -1.12
[256000-1410-253478.207001] 4.14 225042.66 495664.36 720711.16 6.57 260171.20 486048.45 746226.22 5.13 246810.15 497466.15 744281.43 -0.59
[512000-1521-514026.057999] 4.49 495777.88 213419.24 709201.62 6.47 542471.22 180795.77 723273.46 5.38 519302.69 193296.22 712604.29 -0.34
[1024000-1704-1023940.162994] 4.44 1012213.09 6.39 1012223.92 6.57 1044862.99 4.95 1044874.51 5.43 1029993.79 5.83 1030005.06 0.02



#collective:1 execution time:0h,18m,6s
