
#COLLECTIVE:theorical_time size min max median variance(S.D)
500 44000 41.81 22820.51 9078.46 46764027.64(6838.42)
1000 92000 61.54 70.23 66.36 7.39(2.72)
2000 16000 509.92 29867.24 20522.17 70094095.25(8372.22)
4000 9000 3.32 21.07 15.76 25.04(5.00)
8000 84000 59.90 25893.15 16551.67 50156879.69(7082.15)
16000 43000 1084.87 27810.90 15956.57 70095533.62(8372.31)
32000 1382000 1099.43 34742.89 14012.73 139921364.85(11828.84)
64000 125286000 45791.89 78308.44 66981.81 89625607.84(9467.08)
128000 256181000 108117.74 116987.07 114269.57 5413101.41(2326.61)
256000 544059000 236029.22 255985.94 248313.54 34710592.08(5891.57)
512000 1093441000 481876.62 511841.45 500557.50 119856188.98(10947.89)
1024000 2000000000 895963.64 913757.02 911115.33 42546874.70(6522.80)


#COMPUTE:theorical_time size min max median variance(S.D)
500 212 19011312 495.75 13455.54 504.13 8194186.00(2862.55)
1000 274 41066572 992.99 14014.03 997.24 10484777.75(3238.02)
2000 347 83443437 1975.61 14902.01 1992.51 21851089.83(4674.51)
4000 438 167863500 3962.11 16942.17 4005.68 29909098.68(5468.92)
8000 518 277715340 6562.08 18482.39 6606.52 33244938.45(5765.84)
16000 531 299160621 7050.30 18929.09 7358.46 32809087.99(5727.92)
32000 761 880843041 31036.16 44034.45 31698.35 38620300.52(6214.52)
64000 921 1561611681 59767.23 71979.59 71006.33 31989489.70(5655.93)
128000 1029 2178035937 114719.59 127344.71 126703.87 23891391.93(4887.88)
256000 1043 2268165165 242444.25 254729.28 253488.23 31413916.55(5604.81)
512000 1165 3160977025 511659.33 518306.87 517764.37 6271967.76(2504.39)
1024000 1301 4402455201 1011742.78 1026705.86 1014219.08 29309433.06(5413.82)


#NO MPI COMPUTE:theorical_time size nbop real_comp_time
500 209 18214977 503.30
1000 271 39731581 991.00
2000 348 84167280 2014.47
4000 439 169016317 3971.74
8000 554 339756012 7957.13
16000 699 682575597 15886.11
32000 881 1366819521 31755.81
64000 1000 1999000000 64071.23
128000 1067 2428397037 122651.58
256000 1136 2930716416 255540.13
512000 1253 3932872545 507746.16
1024000 1555 7517639725 1021916.15


[44000-500-9078.460448]

[500-212-504.130859] 1.53 570.29 91.42 663.25 5.63 795.41 33742.99 34544.04 2.63 603.34 17154.19 17760.17 50.05
[1000-274-997.235840] 1.59 1072.21 62.40 1136.19 5.64 1350.99 43156.24 44512.87 2.73 1107.68 24769.43 25879.83 35.27
[2000-347-1992.512207] 1.58 2057.95 81.85 2141.38 5.56 2348.46 40283.80 42637.81 2.39 2101.47 23889.31 25993.17 16.84
[4000-438-4005.684082] 1.58 4036.58 56.68 4094.85 5.60 16600.42 32646.84 49252.86 2.65 4090.69 24639.91 28733.26 9.83
[8000-518-6606.523926] 1.57 6590.59 66.30 6658.47 5.50 19504.09 27199.04 46708.63 2.30 6711.46 24096.24 30810.01 2.92
[16000-531-7358.459961] 1.59 7084.20 82.65 7168.44 5.54 20094.11 17892.81 37992.46 2.39 7270.84 20718.84 27992.07 2.00
[32000-761-31698.350098] 1.57 31093.92 677.69 31773.18 5.68 44081.68 10589.09 54676.45 1.85 31896.04 12151.37 44049.27 2.44
[64000-921-71006.327148] 1.54 59510.87 9119.39 68631.80 5.91 70588.50 2968.97 73563.38 1.66 59930.36 11305.29 71237.31 0.28
[128000-1029-126703.867676] 1.69 114759.68 11228.88 125990.25 5.94 128382.50 11339.88 139728.31 1.94 126751.63 781.85 127535.42 1.28
[256000-1043-253488.227051] 1.81 242920.60 9751.18 252673.59 6.10 262003.87 6887.33 268897.30 2.55 254217.63 1672.20 255892.38 1.36
[512000-1165-517764.367188] 1.88 505320.53 11255.30 516577.71 6.21 550771.01 10185.02 560962.24 2.38 518069.64 5909.66 523981.68 4.76
[1024000-1301-1014219.076172] 1.96 1013055.67 1810.86 1014868.49 6.45 1123002.38 11841.86 1134850.68 2.54 1020906.74 6054.40 1026963.69 10.77

[92000-1000-66.363304]

[500-212-504.130859] 1.54 569.02 83.29 653.85 9.47 809.43 33033.07 33851.97 3.44 605.18 20544.42 21153.04 502.43
[1000-274-997.235840] 1.60 1074.46 71.29 1147.35 9.36 1353.20 36552.48 37915.04 3.32 1117.22 22873.39 23993.93 556.18
[2000-347-1992.512207] 1.58 2058.20 70.57 2130.35 9.39 12992.97 24774.52 37776.87 3.32 2095.68 20979.36 23078.36 539.22
[4000-438-4005.684082] 1.62 4037.43 112.08 4151.13 9.44 16994.76 25054.78 42058.98 3.24 4121.11 21870.17 25994.51 572.18
[8000-518-6606.523926] 1.59 6588.47 92.50 6682.56 9.48 19494.31 29710.24 49214.03 2.40 6707.27 25101.31 31810.98 437.18
[16000-531-7358.459961] 1.62 7087.73 92.22 7181.57 9.50 20064.77 18809.40 38883.67 3.28 7255.14 23102.67 30361.09 286.81
[32000-761-31698.350098] 1.62 31126.10 665.91 31793.63 9.60 44077.37 10642.83 54729.79 1.92 31905.79 12088.83 43996.54 334.19
[64000-921-71006.327148] 1.56 59530.25 9172.27 68704.08 9.68 70506.04 10575.62 81091.33 1.67 59938.89 11261.42 71201.97 151.97
[128000-1029-126703.867676] 1.64 114780.53 11360.72 126142.89 9.80 128337.31 11587.00 139934.12 1.96 126773.94 1214.84 127990.74 178.85
[256000-1043-253488.227051] 1.72 242624.35 10146.09 252772.15 9.92 262611.79 6609.42 269231.13 1.99 254193.84 1873.45 256069.28 191.18
[512000-1165-517764.367188] 1.86 505312.23 11174.05 516488.14 10.09 557594.14 9924.33 567528.55 2.36 517863.94 8465.43 526331.72 749.88
[1024000-1301-1014219.076172] 1.94 1013289.99 2007.86 1015299.79 10.29 1122272.68 10977.37 1133260.34 2.57 1022743.60 5009.76 1027755.93 1448.84

[16000-2000-20522.166764]

[500-212-504.130859] 1.44 569.16 64.80 635.40 3.24 805.16 34068.15 34876.55 1.90 601.85 20801.65 21405.40 28.21
[1000-274-997.235840] 1.51 1072.83 90.72 1165.07 3.29 1353.86 36490.17 37847.31 2.14 1117.44 21658.26 22777.84 17.24
[2000-347-1992.512207] 1.51 2058.11 129.49 2189.10 3.26 14707.36 23196.27 37906.90 1.95 2130.97 22997.70 25130.62 8.73
[4000-438-4005.684082] 1.61 4039.50 55.86 4096.97 3.34 16691.40 19852.57 36547.31 2.28 4101.69 20683.04 24787.01 3.92
[8000-518-6606.523926] 1.70 6595.42 67.72 6664.84 3.53 19731.73 30123.88 49859.14 2.25 6711.97 24912.77 31627.00 1.45
[16000-531-7358.459961] 1.55 7085.70 121.61 7208.87 3.35 20094.18 14795.43 34892.95 1.98 7326.82 19484.82 26813.63 0.72
[32000-761-31698.350098] 1.57 31081.76 708.52 31791.86 3.45 44074.51 10877.41 54955.36 1.83 31899.83 12116.47 44018.13 1.09
[64000-921-71006.327148] 1.55 59422.03 9125.47 68549.05 3.41 71222.33 10966.46 82192.20 1.70 60433.72 11397.53 71832.95 0.55
[128000-1029-126703.867676] 1.66 114777.48 11644.94 126424.08 3.54 128429.59 11841.14 140274.26 1.97 126781.56 1208.84 127992.38 0.59
[256000-1043-253488.227051] 1.71 242625.72 10202.11 252829.54 3.56 259266.44 9439.91 268709.91 1.96 253989.17 1922.35 255913.47 0.59
[512000-1165-517764.367188] 1.85 505364.55 11462.32 516828.72 3.77 550817.36 9810.48 560631.61 2.27 518260.53 7553.59 525816.39 2.09
[1024000-1301-1014219.076172] 1.94 1013468.82 1910.91 1015381.68 3.94 1130074.01 8861.95 1138939.89 2.43 1024447.31 3383.44 1027833.17 4.96

[9000-4000-15.755801]

[500-212-504.130859] 1.23 569.12 9.46 579.81 3.02 811.30 5.00 819.33 1.90 611.43 35.59 648.92 19.71
[1000-274-997.235840] 1.29 1070.68 8.78 1080.75 3.11 1348.32 7.29 1358.72 2.49 1112.40 35.71 1150.60 22.46
[2000-347-1992.512207] 1.38 2060.71 6.08 2068.17 3.16 2321.41 15.02 2339.60 2.60 2109.45 35.47 2147.52 22.03
[4000-438-4005.684082] 1.36 4037.60 10.25 4049.21 3.14 16999.07 9829.62 26831.83 2.64 4103.53 41.39 4147.57 1443.58
[8000-518-6606.523926] 1.41 6593.99 6.68 6602.07 3.29 19583.57 12249.85 31836.72 2.54 6707.25 9.13 6718.92 738.50
[16000-531-7358.459961] 1.39 7086.81 7.71 7095.92 3.32 20072.72 11667.73 31743.77 1.93 7247.04 22.17 7271.14 754.87
[32000-761-31698.350098] 1.35 31119.31 658.37 31779.03 3.21 44091.27 10814.34 54908.83 1.58 31899.53 12155.95 44057.07 1418.99
[64000-921-71006.327148] 1.29 59455.65 9073.12 68530.05 3.19 70863.90 9830.86 80697.96 1.41 60008.91 11147.03 71157.34 615.12
[128000-1029-126703.867676] 1.36 114805.80 11566.41 126373.57 3.27 128191.49 11539.46 139734.22 1.53 126828.52 882.92 127712.97 740.63
[256000-1043-253488.227051] 1.40 242740.56 10246.69 252988.65 3.34 261171.50 7669.65 268844.49 1.60 254310.10 1307.90 255619.59 780.71
[512000-1165-517764.367188] 1.61 505388.24 11365.37 516755.22 3.53 556997.85 6829.39 563830.77 2.01 518349.22 7474.68 525825.92 2923.77
[1024000-1301-1014219.076172] 1.67 1012270.79 3085.08 1015357.54 3.57 1126460.21 8190.46 1134654.25 2.16 1023483.69 4256.15 1027742.00 6190.98

[84000-8000-16551.669465]

[500-212-504.130859] 1.52 570.03 137.10 708.65 8.91 805.03 34078.68 34892.62 2.82 611.91 18984.95 19599.68 36.05
[1000-274-997.235840] 1.57 1072.68 121.60 1195.85 8.89 1356.33 40453.79 41819.01 3.22 1122.35 23742.04 24867.61 25.15
[2000-347-1992.512207] 1.57 2058.68 129.29 2189.54 8.85 14663.47 18382.46 33054.78 2.10 2113.57 17803.07 19918.74 8.28
[4000-438-4005.684082] 1.62 4041.44 95.87 4138.92 8.90 17025.28 18821.26 35855.44 3.29 4132.66 21543.72 25679.67 4.72
[8000-518-6606.523926] 1.64 6594.32 92.97 6688.93 8.93 19614.08 29702.19 49325.21 3.29 6724.89 24019.86 30748.04 1.76
[16000-531-7358.459961] 1.64 7093.26 101.75 7196.65 9.01 20096.02 16847.46 36952.48 2.66 7276.17 20050.48 27329.31 1.03
[32000-761-31698.350098] 1.61 31107.33 687.53 31796.47 9.13 44097.80 10891.70 54998.63 1.94 31908.28 12156.44 44066.65 1.36
[64000-921-71006.327148] 1.57 59530.59 8998.76 68530.92 9.23 70941.52 10786.77 81737.51 1.71 59979.63 11503.58 71484.91 0.65
[128000-1029-126703.867676] 1.64 114776.21 11672.27 126450.12 9.32 128500.23 11448.66 139958.21 1.82 126971.46 6008.14 132981.42 0.72
[256000-1043-253488.227051] 1.70 242777.69 10049.95 252829.34 9.29 259319.88 9401.80 268730.97 1.94 254072.76 1975.19 256049.88 0.74
[512000-1165-517764.367188] 1.87 505364.69 11405.19 516771.74 9.59 553574.27 4898.38 558482.23 2.48 518007.76 6407.58 524417.83 2.46
[1024000-1301-1014219.076172] 1.99 1011931.70 3287.95 1015221.64 9.88 1119240.36 2573.88 1121824.13 2.66 1021153.44 5735.82 1026891.92 5.12

[43000-16000-15956.573887]

[500-212-504.130859] 1.51 571.07 60.27 632.85 5.70 806.94 40001.45 40814.09 2.63 604.64 25270.86 25878.12 48.86
[1000-274-997.235840] 1.62 1073.31 58.19 1133.12 5.67 1348.82 40500.02 41854.51 2.73 1116.91 24870.87 25990.52 25.77
[2000-347-1992.512207] 1.61 2059.67 78.46 2139.74 5.77 2685.50 42553.68 45244.95 2.57 2099.00 23996.59 26098.16 14.70
[4000-438-4005.684082] 1.57 4037.04 78.87 4117.48 5.76 16976.36 28687.00 45669.12 2.36 4116.80 24828.52 28947.68 7.27
[8000-518-6606.523926] 1.52 6594.87 105.03 6701.42 5.69 19581.88 13293.39 32880.96 2.03 6778.44 19035.20 25815.67 0.79
[16000-531-7358.459961] 1.57 7090.77 79.93 7172.27 5.81 20097.27 13652.44 33755.52 2.21 7280.69 19720.79 27003.69 0.87
[32000-761-31698.350098] 1.59 31189.28 657.38 31848.26 6.03 44110.43 11469.94 55586.39 1.83 31916.25 12149.25 44067.33 1.44
[64000-921-71006.327148] 1.56 59414.16 9126.55 68542.27 6.07 70750.11 10915.73 81671.91 1.70 59973.92 11381.58 71357.19 0.67
[128000-1029-126703.867676] 1.60 114795.88 11695.19 126492.67 6.04 128455.22 11325.37 139786.63 1.80 126812.83 1120.22 127934.85 0.73
[256000-1043-253488.227051] 1.72 242715.84 10078.24 252795.80 6.24 262780.45 6273.89 269060.59 1.98 253924.89 1822.40 255749.27 0.78
[512000-1165-517764.367188] 1.81 505335.41 11213.05 516550.26 6.30 558115.46 6617.82 564739.59 2.23 517922.20 6891.01 524815.44 2.94
[1024000-1301-1014219.076172] 1.92 1011752.76 3839.16 1015593.84 6.44 1123941.52 10976.10 1134924.07 2.52 1021136.51 6594.87 1027733.90 6.13

[1382000-32000-14012.731181]

[500-212-504.130859] 2.47 577.63 854.45 1434.55 81.80 817.88 37742.98 38642.66 23.74 618.51 26155.97 26798.22 48.41
[1000-274-997.235840] 2.39 1080.23 1111.82 2194.43 78.87 1342.70 19264.68 20686.24 2.72 1149.92 13431.99 14584.62 6.64
[2000-347-1992.512207] 2.51 2064.48 821.35 2888.35 82.23 10004.54 29812.16 39898.93 23.96 2102.68 25419.32 27545.96 12.99
[4000-438-4005.684082] 2.49 4046.23 1047.42 5096.13 80.57 9096.90 26803.39 35980.86 2.82 4159.77 24562.76 28725.35 5.37
[8000-518-6606.523926] 2.32 6595.99 1265.71 7864.03 79.74 6940.91 20004.41 27025.06 2.54 6705.24 19726.52 26434.30 0.49
[16000-531-7358.459961] 2.44 7098.01 2434.76 9535.20 881.43 18809.30 25596.16 45286.89 25.94 7186.88 24620.14 31832.96 1.82
[32000-761-31698.350098] 2.48 20676.32 20312.43 40991.23 4652.38 40508.67 17451.57 62612.62 3.24 31910.65 20791.72 52705.61 2.15
[64000-921-71006.327148] 2.48 45934.40 22040.07 67976.94 90.25 65465.36 40148.62 105704.23 2.90 51836.12 41140.41 92979.43 2.48
[128000-1029-126703.867676] 2.52 108509.94 15185.31 123697.77 88.24 128949.11 25649.62 154686.97 2.88 116812.17 14007.73 130822.78 1.90
[256000-1043-253488.227051] 2.57 233999.52 12970.50 246972.58 110.59 264441.60 12179.89 276732.09 3.07 245064.43 11709.58 256777.08 1.44
[512000-1165-517764.367188] 2.54 502775.26 9411.95 512189.75 108.79 550939.91 10601.41 561650.11 2.86 514821.20 12223.27 527047.32 3.13
[1024000-1301-1014219.076172] 2.66 1003017.03 10507.81 1013527.49 121.45 1123408.46 12098.09 1135627.99 6.82 1016785.04 11090.85 1027882.71 7.03

[125286000-64000-66981.808842]

[500-212-504.130859] 2.58 572.89 44162.46 44737.93 2071.41 831.88 69211.26 72114.56 3.09 610.66 62010.83 62624.57 10.09
[1000-274-997.235840] 2.55 1075.57 43395.93 44474.05 2074.51 10866.40 57187.31 70128.22 3.09 1116.07 59871.04 60990.20 3.13
[2000-347-1992.512207] 2.61 2062.24 39525.26 41590.11 2059.69 15066.60 53424.58 70550.86 3.26 2097.77 58659.96 60760.99 1.79
[4000-438-4005.684082] 2.55 4044.79 43520.62 47567.96 2062.20 17047.93 53135.24 72245.37 3.13 4232.99 53581.23 57817.35 1.29
[8000-518-6606.523926] 2.59 6595.37 25567.94 32165.90 2079.74 15720.34 57228.48 75028.56 261.43 6714.61 58993.49 65969.53 0.40
[16000-531-7358.459961] 2.55 7091.47 24869.92 31963.93 2048.09 19556.27 51262.25 72866.62 3.12 7243.72 58572.88 65819.72 0.30
[32000-761-31698.350098] 2.53 27941.31 39806.50 67750.34 2049.07 45229.30 38320.89 85599.26 2.79 32165.51 48815.88 80984.18 0.57
[64000-921-71006.327148] 2.59 47449.80 26538.61 73991.00 2050.52 69085.85 44046.63 115182.99 3.42 56210.77 43779.52 99993.72 0.66
[128000-1029-126703.867676] 2.62 110099.69 22075.91 132178.22 2051.11 126964.50 35814.05 164829.66 3.03 118847.91 33561.89 152412.83 0.55
[256000-1043-253488.227051] 2.52 235907.53 12078.44 247988.49 13951.42 254340.86 2572.92 270865.20 2.78 244643.36 13178.07 257824.21 0.21
[512000-1165-517764.367188] 2.59 505265.33 8579.56 513847.48 2086.98 560777.02 10095.73 572959.73 3.15 515337.16 7496.36 522836.67 0.82
[1024000-1301-1014219.076172] 2.67 1009100.55 9862.60 1018965.83 2082.35 1116574.84 10287.13 1128944.32 3.23 1021258.59 4698.97 1025960.78 1.37

[256181000-128000-114269.572931]

[500-212-504.130859] 2.60 573.01 100147.48 100723.08 4089.10 802.97 122306.13 127198.20 3.21 612.02 114357.68 114972.91 25.41
[1000-274-997.235840] 2.62 1079.11 98539.14 99620.87 3932.43 13885.28 109080.66 126898.37 3.14 1127.01 113623.24 114753.40 12.57
[2000-347-1992.512207] 2.63 2061.81 93045.99 95110.43 4197.29 6090.49 116909.79 127197.58 3.21 2103.28 113216.17 115322.66 6.49
[4000-438-4005.684082] 2.64 4048.54 93848.76 97899.94 4209.73 16378.93 107162.90 127751.56 3.25 4098.71 111548.84 115650.80 3.30
[8000-518-6606.523926] 2.73 6606.99 85734.42 92344.14 3946.02 19532.34 104511.32 127989.68 3.16 6646.87 109499.57 116149.61 0.68
[16000-531-7358.459961] 2.55 7083.77 88098.68 95185.00 13005.51 21346.82 94544.14 128896.47 3.07 13740.07 103788.38 117531.51 0.74
[32000-761-31698.350098] 2.64 21884.91 88699.84 110587.40 13749.56 44874.24 70218.06 128841.87 3.87 33655.11 83692.12 117351.09 0.45
[64000-921-71006.327148] 2.69 47533.87 72460.39 119996.94 4131.73 70421.86 68277.84 142831.43 3.50 58624.13 77359.84 135987.48 0.40
[128000-1029-126703.867676] 2.59 112218.47 45062.11 157283.17 3914.62 126627.27 54347.88 184889.77 3.19 117766.05 61526.65 179295.89 0.50
[256000-1043-253488.227051] 2.65 234729.81 14753.45 249485.90 3954.31 254674.36 25183.67 283812.34 3.18 240651.99 23365.52 264020.69 0.24
[512000-1165-517764.367188] 2.47 506197.04 12463.66 518663.17 3975.56 528650.00 279.14 532904.70 3.00 518342.09 7667.34 526012.42 0.13
[1024000-1301-1014219.076172] 2.97 1006370.95 8966.14 1015340.07 4240.48 1127994.10 3227.55 1135462.13 4.44 1018938.25 7168.08 1026110.78 0.86

[544059000-256000-248313.544268]

[500-212-504.130859] 3.15 581.61 233957.73 234542.49 11699.29 832.61 247182.65 259714.55 4.50 628.32 247327.24 247960.06 22.41
[1000-274-997.235840] 3.19 1088.13 233888.80 234980.13 11734.20 11158.55 236970.74 259863.49 4.40 1138.44 246844.00 247986.85 11.50
[2000-347-1992.512207] 3.24 2076.12 232566.49 234645.85 11495.00 14771.50 234257.41 260523.91 4.49 2162.68 245817.06 247984.23 6.13
[4000-438-4005.684082] 2.97 4055.73 232387.04 236445.74 12766.67 16485.72 230979.37 260231.76 4.17 4137.57 248474.94 252616.68 2.92
[8000-518-6606.523926] 3.28 6635.00 217717.52 224355.80 23369.19 18355.29 218399.54 260124.02 4.95 6785.59 240693.20 247483.74 0.58
[16000-531-7358.459961] 3.28 7106.02 223388.92 230498.22 11770.83 19884.40 230182.73 261837.96 4.52 7223.13 240715.33 247942.98 0.68
[32000-761-31698.350098] 3.03 22875.66 213017.28 235895.98 23445.00 44177.49 195364.53 262987.02 4.45 32194.35 218286.34 250485.13 0.45
[64000-921-71006.327148] 3.41 49894.30 191961.31 241859.01 23536.45 73182.76 172811.88 269531.09 4.59 63442.71 198142.06 261589.36 0.30
[128000-1029-126703.867676] 3.44 111606.55 132469.40 244079.38 23385.18 133168.34 117638.05 274191.58 4.84 119712.18 138456.77 258173.79 0.20
[256000-1043-253488.227051] 3.62 236535.22 85625.43 322164.28 11861.63 264382.07 78150.80 354394.50 4.57 244426.54 95543.93 339975.05 0.39
[512000-1165-517764.367188] 3.56 504749.60 13221.21 517974.37 11532.39 557828.53 1287.48 570648.40 4.71 514233.73 13239.40 527477.84 0.21
[1024000-1301-1014219.076172] 3.82 1011576.31 6401.31 1017981.44 24354.81 1116225.57 -12125.84 1128454.54 5.52 1022648.13 10697.69 1033351.34 0.37

[1093441000-512000-500557.502587]

[500-212-504.130859] 5.21 598.48 482572.45 483176.13 36571.52 808.05 476552.38 513931.95 6.80 649.28 500607.32 501263.41 26.29
[1000-274-997.235840] 5.27 1114.63 480674.89 481794.79 36591.08 14054.57 462684.11 513329.76 6.59 1177.14 500886.94 502070.67 12.71
[2000-347-1992.512207] 5.22 2111.95 476574.66 478691.82 36036.41 14703.97 462129.44 512869.82 6.42 2165.15 499348.76 501520.33 6.18
[4000-438-4005.684082] 5.37 4117.63 482103.28 486226.28 36861.21 16787.80 458949.31 512598.33 6.70 4296.03 497641.26 501944.00 2.95
[8000-518-6606.523926] 5.15 6694.16 473777.37 480476.68 36254.90 18599.97 458390.09 513244.96 6.58 6749.31 483212.98 489968.86 0.63
[16000-531-7358.459961] 5.46 7197.28 477352.15 484554.89 36723.05 20003.22 458178.04 514904.31 7.25 7340.30 493870.56 501218.11 0.72
[32000-761-31698.350098] 5.16 27609.92 467355.04 494970.12 36315.77 46980.05 439185.89 522481.71 6.72 32475.94 481490.05 513972.72 0.67
[64000-921-71006.327148] 5.31 54613.92 427743.14 482362.37 35888.00 75230.38 411763.42 522881.80 6.43 60356.02 453577.36 513939.81 0.31
[128000-1029-126703.867676] 5.29 114931.14 374501.41 489437.84 35874.01 133453.16 355457.59 524784.76 7.47 127320.57 386886.11 514214.15 0.19
[256000-1043-253488.227051] 5.57 236237.48 290723.59 526966.65 36575.51 280616.00 229951.91 547143.42 7.06 247697.99 288694.83 536399.88 0.18
[512000-1165-517764.367188] 5.58 504978.41 111980.75 616964.74 36826.35 547516.44 62857.97 647200.76 6.96 510427.50 127425.36 637859.82 0.26
[1024000-1301-1014219.076172] 5.01 1006776.79 16020.02 1022801.82 36661.61 1115233.25 -25242.86 1126652.00 6.45 1019712.62 14230.01 1033949.07 0.18

[2000000000-1024000-911115.332673]

[500-212-504.130859] 5.96 600.87 882288.10 882894.92 52644.78 828.09 868640.44 922113.31 7.34 653.91 902710.41 903371.66 21.62
[1000-274-997.235840] 5.93 1121.09 884462.55 885589.58 52400.88 14084.32 852773.45 919258.64 6.91 1196.57 900881.27 902084.75 8.10
[2000-347-1992.512207] 5.82 2124.63 882812.88 884943.33 51902.35 14877.84 853720.53 920500.72 7.11 2187.34 902495.40 904689.85 4.71
[4000-438-4005.684082] 5.76 4114.92 882834.41 886955.09 52465.38 17157.51 852091.39 921714.28 7.25 4243.65 902257.92 906508.82 2.59
[8000-518-6606.523926] 5.67 6720.61 874406.12 881132.40 52458.70 19360.55 844125.81 915945.07 7.34 7092.40 899646.04 906745.77 0.24
[16000-531-7358.459961] 6.28 7176.56 879228.46 886411.30 53708.86 19793.95 849298.85 922801.66 7.82 18795.74 889880.67 908684.23 0.59
[32000-761-31698.350098] 5.93 26972.50 858979.77 885958.20 52889.50 44500.07 826491.04 923880.60 7.21 32145.35 872629.21 904781.77 0.39
[64000-921-71006.327148] 5.89 50495.55 848468.51 898969.96 52595.86 71841.08 805359.07 929796.01 6.77 61913.12 855303.79 917223.68 0.26
[128000-1029-126703.867676] 5.69 106857.68 784525.83 891389.21 52659.39 144724.03 738212.40 935595.83 6.78 127447.83 789731.66 917186.27 0.19
[256000-1043-253488.227051] 6.03 241790.83 663142.36 904939.22 51857.34 267738.94 610756.19 930352.47 7.57 253911.43 662420.26 916339.26 0.07
[512000-1165-517764.367188] 5.83 502031.10 427501.90 929538.83 51642.42 559595.35 349638.17 960875.94 7.69 514691.26 428082.24 942781.19 0.10
[1024000-1301-1014219.076172] 5.59 1006671.13 113302.38 1119979.10 51864.09 1109465.11 2078.39 1163407.59 7.09 1018960.00 129668.42 1148635.51 0.14



#collective:1 execution time:0h,44m,19s
