
#COLLECTIVE:theorical_time size min max median variance(S.D)
500 0 3.25 6.39 5.10 0.87(0.93)
1000 674000 209.34 998.22 796.40 51489.95(226.91)
2000 1374780 433.16 2000.22 1603.59 203440.98(451.04)
4000 2322000 1989.92 3982.36 3308.16 545928.12(738.87)
8000 4668000 3982.63 7997.85 6635.73 2222369.37(1490.76)
16000 9254000 7939.51 15998.30 13249.46 8933154.85(2988.84)
32000 18264000 15807.95 32014.64 26407.24 35965539.70(5997.13)
64000 36442000 31575.91 63997.42 52798.03 143944160.31(11997.67)
128000 72825000 63125.15 128006.68 105586.19 576323758.74(24006.74)
256000 145563000 126201.20 255976.73 211114.87 2305247669.13(48012.99)
512000 290813000 252146.12 511538.67 421847.77 9210729934.06(95972.55)
1024000 581861000 504518.37 1022449.85 844051.89 36730920099.39(191653.12)


#COMPUTE:theorical_time size min max median variance(S.D)
500 152 7000512 483.20 520.58 499.89 50.22(7.09)
1000 188 13254000 940.98 1048.74 1013.62 643.75(25.37)
2000 246 29713356 1990.57 2335.78 2077.12 2897.92(53.83)
4000 314 61819692 3960.82 4032.83 3982.36 273.11(16.53)
8000 397 124983937 7949.53 8026.88 7979.62 475.49(21.81)
16000 501 251252001 16029.29 16265.01 16040.01 8475.62(92.06)
32000 527 292448637 31700.41 31895.09 31732.38 4837.08(69.55)
64000 589 408326017 65827.41 66254.11 66199.17 25430.03(159.47)
128000 657 566755137 128331.42 128476.68 128425.16 3011.12(54.87)
256000 787 974267437 255781.25 256141.21 256027.58 19619.12(140.07)
512000 989 1933745217 507638.94 508629.81 508422.40 173053.29(416.00)
1024000 1234 3756639052 1017922.96 1019684.59 1019197.64 408415.26(639.07)


#NO MPI COMPUTE:theorical_time size nbop real_comp_time
500 158 7863660 498.43
1000 194 14565132 997.62
2000 247 30077437 1990.55
4000 316 63009136 3990.06
8000 399 126883197 7957.12
16000 501 251252001 15885.09
32000 527 292448637 31593.20
64000 589 408326017 65952.00
128000 659 571948077 129280.77
256000 786 970557516 255536.09
512000 993 1957307265 512305.96
1024000 1234 3756639052 1020623.94


[0-500-5.103943]

[500-152-499.888672] 2.32 547.17 14.05 563.54 3.34 573.72 19.60 596.66 2.61 560.67 13.51 576.79 17.78
[1000-188-1013.616211] 2.41 974.05 16.43 992.90 3.28 1008.37 13.86 1025.52 2.66 996.97 14.05 1013.68 2.33
[2000-246-2077.122070] 2.50 2028.33 13.24 2044.07 3.44 2073.59 15.72 2092.74 2.75 2058.32 15.55 2076.62 -34.18
[4000-314-3982.360352] 2.61 4002.66 10.83 4016.09 3.49 4063.80 16.78 4084.07 2.83 4042.74 19.28 4064.85 11.30
[8000-397-7979.619141] 2.75 7980.29 7.65 7990.69 3.57 8038.01 16.72 8058.30 2.91 8016.55 26.17 8045.62 -11.79
[16000-501-16040.011719] 2.76 15974.33 33.95 16011.03 3.66 16083.17 21.98 16108.81 2.94 16022.61 73.10 16098.65 9.28
[32000-527-31732.382812] 2.92 31527.36 21.08 31551.35 3.63 31758.90 8.95 31771.48 3.03 31698.08 14.46 31715.58 -10.11
[64000-589-66199.166992] 2.93 65938.08 263.15 66204.16 4.13 66460.12 12.17 66476.42 3.21 66387.64 19.68 66410.53 -5.99
[128000-657-128425.161133] 2.97 127946.63 294.96 128244.56 5.01 128568.01 8.22 128581.24 3.31 128477.77 31.59 128512.68 -80.37
[256000-787-256027.582031] 2.87 254871.31 712.58 255586.76 4.94 256098.77 6.81 256110.53 4.50 255915.93 82.87 256003.29 11.55
[512000-989-508422.401367] 3.08 506383.50 1457.36 507843.94 9.27 569593.93 25.25 569628.45 3.96 508642.26 69.18 508715.39 5889.53
[1024000-1234-1019197.643555] 3.10 1017113.74 30.92 1017147.77 10.27 1021783.22 17.77 1021811.25 3.70 1019560.55 2230.80 1021795.05 -2022.66

[674000-1000-796.403456]

[500-152-499.888672] 2.91 567.70 145.02 715.63 265.05 598.07 387.96 1251.08 3.17 581.00 343.98 928.16 0.90
[1000-188-1013.616211] 2.89 995.22 140.61 1138.71 263.89 1018.09 387.28 1669.25 3.16 1004.94 343.29 1351.40 0.82
[2000-246-2077.122070] 2.93 2023.76 180.97 2207.66 264.63 2089.05 384.67 2738.34 3.19 2070.74 344.64 2418.57 0.59
[4000-314-3982.360352] 2.92 4034.53 138.29 4175.74 264.72 4086.05 384.90 4735.67 3.22 4060.99 343.52 4407.73 0.89
[8000-397-7979.619141] 2.91 7991.45 187.45 8181.82 266.11 8070.91 369.11 8706.12 3.18 8036.46 334.40 8374.04 0.74
[16000-501-16040.011719] 3.00 15958.47 262.14 16223.61 264.34 16111.22 359.00 16734.56 3.15 16048.12 346.07 16397.34 0.85
[32000-527-31732.382812] 3.34 31605.64 282.08 31891.05 266.11 35481.39 -102.22 35645.28 4.63 31805.42 304.79 32114.84 4.80
[64000-589-66199.166992] 3.06 65973.69 493.57 66470.33 266.10 66610.60 378.23 67254.93 3.34 66476.42 414.09 66893.85 0.94
[128000-657-128425.161133] 3.79 128031.22 498.34 128533.35 268.40 128736.10 255.32 129259.82 4.69 128568.98 338.51 128912.18 0.34
[256000-787-256027.582031] 2.85 255022.12 792.08 255817.05 266.38 256239.08 222.39 256727.85 3.19 255995.93 396.95 256396.08 0.85
[512000-989-508422.401367] 2.91 506354.19 1426.54 507783.64 269.76 508534.88 80.63 508885.26 3.27 508054.53 527.72 508585.53 -38.53
[1024000-1234-1019197.643555] 3.01 1016986.67 348.61 1017338.30 270.25 1022097.49 375.55 1022743.29 4.05 1019422.81 2692.45 1022119.31 -11.79

[1374780-2000-1603.589067]

[500-152-499.888672] 2.99 567.20 589.64 1159.82 541.68 620.14 749.67 1911.48 3.32 585.04 998.46 1586.82 0.61
[1000-188-1013.616211] 2.96 993.27 251.73 1247.96 541.76 1026.32 735.05 2303.13 3.26 1006.40 644.89 1654.55 0.69
[2000-246-2077.122070] 2.96 2050.02 246.61 2299.58 542.38 2093.48 736.90 3372.75 3.28 2071.95 659.10 2734.33 0.69
[4000-314-3982.360352] 2.97 4031.14 253.37 4287.48 542.80 4076.80 730.45 5350.04 3.27 4055.30 649.50 4708.07 0.83
[8000-397-7979.619141] 2.94 7986.91 281.94 8271.79 549.07 8059.46 710.36 9318.90 3.26 8029.74 641.31 8674.31 0.75
[16000-501-16040.011719] 2.93 15922.31 359.21 16284.46 543.83 16129.25 634.11 17307.20 3.26 16039.10 628.63 16671.00 0.78
[32000-527-31732.382812] 2.94 31577.08 390.28 31970.30 543.65 31805.27 617.05 32965.97 3.57 31713.06 552.60 32269.23 0.71
[64000-589-66199.166992] 3.04 65952.37 473.21 66428.62 546.06 66441.93 713.71 67701.71 3.51 66378.02 647.18 67028.71 0.75
[128000-657-128425.161133] 3.18 127987.61 673.63 128664.42 543.46 128622.29 672.87 129838.63 4.43 128540.30 596.65 129141.38 0.53
[256000-787-256027.582031] 2.98 255066.53 1032.32 256101.83 546.59 256362.29 519.80 257428.68 4.71 256071.39 662.49 256738.59 0.86
[512000-989-508422.401367] 2.92 506360.48 1620.15 507983.54 557.45 508441.74 372.60 509371.79 3.35 508031.84 637.05 508672.24 -18.83
[1024000-1234-1019197.643555] 3.16 1016849.60 567.63 1017420.39 552.18 1022246.53 734.59 1023533.31 10.78 1019380.89 3470.31 1022861.99 -5.36

[2322000-4000-3308.161589]

[500-152-499.888672] 2.47 575.53 1999.27 2577.27 4.94 599.90 3988.94 4593.78 2.74 587.70 3316.64 3907.08 2.54
[1000-188-1013.616211] 2.45 1000.04 2007.38 3009.87 4.91 1027.05 3987.93 5019.89 2.74 1015.17 3318.71 4336.62 1.69
[2000-246-2077.122070] 2.54 2061.39 2011.27 4075.20 5.07 2089.59 3977.30 6071.96 2.84 2077.01 3312.04 5391.89 1.22
[4000-314-3982.360352] 2.61 4058.49 2011.66 6072.76 5.16 4093.09 3980.93 8079.18 2.90 4079.87 3315.17 7397.94 1.23
[8000-397-7979.619141] 2.77 8008.46 2022.31 10033.54 5.25 8082.66 3973.70 12061.61 3.01 8058.65 3320.99 11382.65 1.19
[16000-501-16040.011719] 2.88 15943.17 2083.90 18029.95 5.38 16366.39 3729.19 20100.96 3.03 16086.03 3334.87 19423.93 1.22
[32000-527-31732.382812] 2.94 31567.65 2149.37 33719.96 5.80 31855.74 3831.30 35692.84 3.17 31756.27 3254.15 35013.59 1.17
[64000-589-66199.166992] 3.02 65969.78 2080.06 68052.85 7.86 66637.77 3554.53 70200.16 3.36 66454.12 3059.51 69516.99 1.12
[128000-657-128425.161133] 3.17 128002.66 2240.33 130246.16 7.76 128801.29 3538.23 132347.28 4.47 128669.06 2988.68 131662.21 1.01
[256000-787-256027.582031] 3.02 255013.09 2417.09 257433.20 7.98 256333.52 3243.52 259585.02 3.35 256080.82 2833.05 258917.22 1.07
[512000-989-508422.401367] 2.90 506302.16 2961.00 509266.07 10.70 508712.80 2991.22 511714.71 3.31 508072.92 2817.60 510893.83 -8.42
[1024000-1234-1019197.643555] 2.85 1016811.88 3604.83 1020419.57 7.77 1021735.72 2572.51 1024316.00 3.38 1019525.30 4081.49 1023610.17 -2.36

[4668000-8000-6635.726944]

[500-152-499.888672] 2.42 573.58 4009.60 4585.60 4.97 602.53 8004.10 8611.60 2.80 590.05 6647.81 7240.67 3.91
[1000-188-1013.616211] 2.46 1003.87 4005.17 5011.50 4.92 1028.52 8001.41 9034.85 2.77 1017.56 6643.24 7663.57 2.37
[2000-246-2077.122070] 2.56 2068.15 4004.63 6075.33 5.04 2096.17 7999.82 10101.03 2.85 2080.44 6652.17 8735.45 1.53
[4000-314-3982.360352] 2.64 4056.45 4018.08 8077.16 5.22 4100.07 8002.36 12107.64 2.89 4082.02 6651.41 10736.32 1.36
[8000-397-7979.619141] 2.80 8017.64 4025.21 12045.64 5.28 8089.86 7980.89 16076.03 2.97 8058.89 6649.54 14711.40 1.20
[16000-501-16040.011719] 2.83 15984.04 4057.59 20044.46 5.70 16131.23 7943.47 24080.39 3.03 16082.65 6637.54 22723.22 1.21
[32000-527-31732.382812] 2.95 31588.97 4075.09 35667.01 5.71 31813.21 7854.19 39673.10 3.07 31751.16 6548.32 38302.55 1.18
[64000-589-66199.166992] 2.98 65977.07 4112.61 70092.66 7.92 66616.92 7566.69 74191.54 3.28 66477.79 6333.61 72814.68 1.16
[128000-657-128425.161133] 3.16 128047.99 4277.58 132328.73 7.81 128791.70 7573.56 136373.07 4.45 128711.76 6268.48 134984.68 1.11
[256000-787-256027.582031] 2.94 254976.45 3408.53 258387.93 7.74 279017.21 9.07 279034.02 4.43 256331.07 5843.39 262178.89 3.46
[512000-989-508422.401367] 2.87 506253.53 5502.29 511758.69 10.70 508470.45 7319.11 515800.27 3.25 508112.24 6278.24 514393.74 -3.58
[1024000-1234-1019197.643555] 2.96 1016807.67 4267.61 1021078.24 14.08 1021681.77 5694.93 1027390.78 3.67 1019088.20 6909.15 1026001.02 -0.71

[9254000-16000-13249.455940]

[500-152-499.888672] 2.51 575.23 7969.17 8546.92 4.98 599.44 16028.71 16633.13 2.82 588.76 13274.51 13866.08 6.69
[1000-188-1013.616211] 2.54 1000.41 7972.65 8975.60 4.96 1027.55 16028.60 17061.11 2.78 1017.49 13275.89 14296.16 3.76
[2000-246-2077.122070] 2.60 2061.21 7971.84 10035.64 5.14 2091.19 16026.54 18122.87 2.86 2080.05 13271.00 15353.91 2.15
[4000-314-3982.360352] 2.66 4061.61 7981.94 12046.21 5.21 4093.95 16036.72 20135.89 2.91 4082.93 13278.45 17364.29 1.71
[8000-397-7979.619141] 2.79 8015.38 8005.16 16023.33 5.24 8093.10 16005.30 24103.64 3.01 8064.26 13268.67 21335.94 1.34
[16000-501-16040.011719] 2.84 15947.30 8084.69 24034.84 5.47 16148.51 15989.44 32143.42 3.03 16076.31 13297.83 29377.16 1.21
[32000-527-31732.382812] 2.99 31600.71 8095.59 39699.29 5.54 31821.51 15968.82 47795.86 3.10 31763.56 13256.98 45023.64 1.21
[64000-589-66199.166992] 3.08 65979.09 8321.49 74303.65 5.79 66670.75 15538.99 82215.54 4.46 66547.85 12906.20 79458.51 1.19
[128000-657-128425.161133] 3.09 128032.42 8298.54 136334.05 7.81 128831.05 15591.09 144429.95 4.48 128700.93 12935.90 141641.31 1.17
[256000-787-256027.582031] 2.99 255079.11 7976.50 263058.61 7.80 256461.61 15493.11 271962.53 4.44 256287.34 12906.41 269198.19 1.20
[512000-989-508422.401367] 2.94 506419.47 9305.98 515728.39 7.91 508689.03 15046.01 523742.95 3.25 508091.48 12876.03 520970.77 -1.19
[1024000-1234-1019197.643555] 2.95 1016751.55 9544.87 1026299.38 9.57 1021863.16 13477.80 1035350.52 3.25 1019255.46 13315.17 1032573.89 0.24

[18264000-32000-26407.238536]

[500-152-499.888672] 2.54 540.45 15872.51 16415.50 5.11 600.27 32184.07 32789.44 2.85 584.20 26567.04 27154.09 12.62
[1000-188-1013.616211] 2.57 963.72 15874.86 16841.16 5.04 1021.64 32089.81 33116.50 2.83 1010.14 26479.24 27492.21 6.62
[2000-246-2077.122070] 2.61 2041.79 15854.29 17898.68 5.20 2090.12 32086.77 34182.09 2.90 2077.89 26474.85 28555.64 3.43
[4000-314-3982.360352] 2.70 4031.60 15860.88 19895.18 5.28 4094.11 32055.83 36155.23 2.95 4080.60 26444.09 30527.64 2.42
[8000-397-7979.619141] 2.80 8004.74 15882.74 23890.28 5.31 8099.37 32085.90 40190.59 3.01 8063.86 26490.83 34557.71 1.70
[16000-501-16040.011719] 2.87 15991.72 15860.36 31854.95 5.37 16191.69 31958.95 48156.00 3.09 16086.41 26427.74 42517.24 1.35
[32000-527-31732.382812] 2.92 31547.83 16011.52 47562.27 5.55 31863.34 31944.67 63813.56 3.09 31785.88 26401.23 58190.20 1.21
[64000-589-66199.166992] 3.06 65974.95 16088.42 82066.43 8.17 66661.58 31732.75 98402.51 4.45 66470.83 26292.19 92767.47 1.21
[128000-657-128425.161133] 3.23 128032.84 16225.08 144261.16 8.29 128803.22 31722.50 160534.00 4.51 128707.64 26184.99 154897.15 1.19
[256000-787-256027.582031] 2.99 255057.47 16470.23 271530.68 7.96 256477.81 31441.46 287927.23 3.25 256230.15 26063.46 282296.86 1.21
[512000-989-508422.401367] 2.92 506358.92 17447.92 523809.76 7.93 512275.87 27722.18 540005.98 4.11 508387.68 25967.62 534359.41 0.02
[1024000-1234-1019197.643555] 2.82 1017298.04 17179.17 1034480.02 8.13 1021713.07 29686.00 1051407.20 3.21 1019584.95 26144.35 1045732.51 0.73

[36442000-64000-52798.026504]

[500-152-499.888672] 2.67 536.24 31669.92 32208.83 5.27 601.05 64094.73 64701.04 2.92 584.41 52875.51 53462.84 23.53
[1000-188-1013.616211] 2.69 962.38 31651.72 32616.80 5.21 1021.99 64106.00 65133.20 2.92 1009.11 52870.80 53882.83 12.17
[2000-246-2077.122070] 2.73 2029.41 31671.55 33703.69 5.28 2089.71 64122.82 66217.81 2.97 2077.52 52894.22 54974.71 5.92
[4000-314-3982.360352] 2.78 4029.97 31682.81 35715.57 5.36 4098.19 64125.18 68228.73 3.01 4082.49 52893.13 56978.63 3.83
[8000-397-7979.619141] 2.84 8003.05 31675.07 39680.97 5.40 8089.45 64089.54 72184.39 3.12 8058.72 52887.37 60949.20 2.39
[16000-501-16040.011719] 2.89 15974.55 31442.34 47419.77 5.51 17050.77 62796.37 79852.65 3.17 16074.90 52524.25 68602.33 1.68
[32000-527-31732.382812] 2.98 31564.93 31789.81 63357.71 5.49 31994.28 63911.42 95911.18 3.25 31787.30 52875.60 84666.15 1.35
[64000-589-66199.166992] 3.10 66030.45 31876.54 97910.09 11.84 66670.14 63780.92 130462.90 4.55 66545.78 52674.07 119224.40 1.21
[128000-657-128425.161133] 3.27 128111.47 31938.56 160053.30 7.98 128807.08 63781.14 192596.19 4.61 128734.44 52593.26 181332.30 1.20
[256000-787-256027.582031] 3.02 255092.35 32598.14 287693.51 7.98 256499.68 63690.50 320198.16 3.31 256263.63 52718.84 308985.79 1.21
[512000-989-508422.401367] 2.92 506498.02 33510.97 540011.91 7.76 508775.52 63636.58 572419.86 3.13 508266.84 52892.45 561162.43 0.62
[1024000-1234-1019197.643555] 2.97 1017092.43 33084.02 1050179.42 8.01 1022128.68 62805.87 1084942.57 3.39 1020213.77 53471.16 1073688.32 1.00

[72825000-128000-105586.186017]

[500-152-499.888672] 2.73 531.79 63216.34 63750.85 5.30 602.38 128089.48 128697.16 3.03 580.01 105654.20 106237.23 45.68
[1000-188-1013.616211] 2.75 960.33 63208.76 64171.84 5.30 1022.63 128121.75 129149.68 3.02 1008.33 105667.68 106679.03 23.25
[2000-246-2077.122070] 2.80 2027.38 63234.65 65264.83 5.44 2093.18 128670.82 130769.43 3.08 2078.08 106253.86 108335.02 11.11
[4000-314-3982.360352] 2.80 4025.10 63217.20 67245.10 5.46 4092.25 128141.69 132239.41 3.12 4072.42 105691.63 109767.18 6.62
[8000-397-7979.619141] 2.84 7994.81 63193.51 71191.16 5.55 8084.29 128075.34 136165.18 3.14 8046.11 105656.32 113705.57 3.77
[16000-501-16040.011719] 2.93 15985.40 63264.34 79252.67 5.65 16298.78 127920.06 144224.50 3.19 16050.06 105691.58 121744.83 2.41
[32000-527-31732.382812] 2.95 31564.11 63351.92 94918.98 5.81 31823.12 128055.13 159884.06 3.22 31774.96 105692.96 137471.14 1.71
[64000-589-66199.166992] 2.93 65995.20 62165.04 128163.17 8.02 72262.55 123600.31 195870.88 3.31 70961.02 102376.58 173340.92 1.36
[128000-657-128425.161133] 3.45 128050.39 63852.31 191906.16 7.94 144633.72 112543.26 257184.92 4.62 128738.12 105926.60 234669.35 1.21
[256000-787-256027.582031] 3.01 255073.89 64199.86 319276.76 8.10 256568.78 127696.26 384273.14 4.47 256314.40 105497.47 361816.34 1.21
[512000-989-508422.401367] 2.98 506517.42 65325.93 571846.32 8.06 508727.40 127866.52 636601.98 3.27 508508.18 105608.38 614119.83 0.92
[1024000-1234-1019197.643555] 3.04 1016948.99 66422.80 1083374.83 10.53 1021979.08 127677.95 1149667.57 3.72 1020558.42 106699.58 1127261.72 1.11

[145563000-256000-211114.869355]

[500-152-499.888672] 2.76 530.57 126298.20 126831.52 5.43 600.26 256075.41 256681.10 3.19 575.69 211181.50 211760.38 90.07
[1000-188-1013.616211] 2.81 959.90 126299.28 127261.99 5.60 1024.24 256054.81 257084.64 3.21 1005.26 211186.53 212195.00 45.35
[2000-246-2077.122070] 2.89 2027.75 126324.27 128354.91 5.53 2093.99 256110.20 258209.72 3.19 2074.84 211243.07 213321.10 20.77
[4000-314-3982.360352] 2.90 4023.12 126302.25 130328.27 5.63 4093.60 256041.37 260140.60 3.21 4071.13 211172.24 215246.58 12.18
[8000-397-7979.619141] 2.96 7986.95 126329.38 134319.29 5.69 8081.43 256058.27 264145.38 3.29 8041.75 211207.49 219252.53 6.53
[16000-501-16040.011719] 3.03 15985.04 126334.37 142322.44 11.57 16179.63 256012.35 272203.55 3.34 16050.65 211226.95 227280.94 3.80
[32000-527-31732.382812] 3.03 31595.48 126370.91 157969.42 5.88 31859.27 256050.48 287915.63 3.32 31780.39 211198.36 242982.07 2.41
[64000-589-66199.166992] 3.22 66000.45 126748.89 192752.56 8.07 66656.04 255920.00 322584.12 3.88 66475.27 211206.50 277685.65 1.68
[128000-657-128425.161133] 4.46 128150.22 127021.94 255176.62 8.06 128829.55 255175.74 384013.35 4.70 128747.09 210301.84 339053.63 1.34
[256000-787-256027.582031] 3.01 255133.21 127444.45 382580.67 8.13 256486.16 255856.31 512350.60 3.60 256370.01 211124.25 467497.87 1.21
[512000-989-508422.401367] 2.99 506563.65 128079.61 634646.26 9.52 508829.82 255384.69 764224.03 3.47 508432.58 211023.26 719459.32 1.06
[1024000-1234-1019197.643555] 2.98 1017390.51 129030.26 1146423.75 8.33 1022316.72 255620.83 1277945.88 3.66 1020413.60 212772.72 1233189.99 1.16

[290813000-512000-421847.774197]

[500-152-499.888672] 2.87 526.88 252252.47 252782.22 5.65 599.59 511590.10 512195.33 3.25 555.90 421922.66 422481.81 178.59
[1000-188-1013.616211] 2.87 956.34 252287.24 253246.45 5.71 1026.43 511577.17 512609.31 3.25 976.36 421897.87 422877.48 89.54
[2000-246-2077.122070] 2.95 2016.77 252311.56 254331.28 5.68 2094.42 511645.21 513745.32 3.25 2067.37 421940.32 424010.94 40.53
[4000-314-3982.360352] 2.93 4022.46 252303.38 256328.77 5.77 4095.41 511580.06 515681.23 3.35 4062.98 421919.82 425986.15 23.30
[8000-397-7979.619141] 3.02 7986.66 252261.47 260251.15 5.92 8084.25 511592.75 519682.93 3.33 8025.56 421921.84 429950.73 12.05
[16000-501-16040.011719] 3.15 15972.68 252278.42 268254.26 5.94 16306.20 511014.64 527326.78 3.35 16045.84 421844.79 437893.98 6.57
[32000-527-31732.382812] 3.15 31586.76 252407.23 283997.14 6.12 31858.22 511549.22 543413.56 3.49 31781.72 421892.73 453677.94 3.82
[64000-589-66199.166992] 3.32 66066.19 252653.38 318722.90 7.05 66616.10 511345.88 577969.03 4.55 66495.74 421990.94 488491.22 2.35
[128000-657-128425.161133] 3.29 128044.16 252768.12 380815.57 8.11 128802.95 511556.44 640367.49 4.61 128712.58 421906.69 550623.88 1.69
[256000-787-256027.582031] 3.06 255118.12 253172.85 508294.03 8.25 256451.38 511350.88 767810.51 3.73 256251.02 421787.15 678041.91 1.35
[512000-989-508422.401367] 3.04 506518.21 254264.47 760785.72 8.15 508818.91 510750.37 1019577.43 3.48 508526.52 421318.83 929848.83 1.14
[1024000-1234-1019197.643555] 3.73 1017041.26 255588.29 1272633.28 19.19 1021687.86 510889.19 1532596.24 5.69 1019275.17 423589.30 1442870.17 1.19

[581861000-1024000-844051.889276]

[500-152-499.888672] 3.01 524.96 504639.75 505167.71 5.74 595.09 1023132.97 1023733.79 3.32 545.99 844101.44 844650.74 355.17
[1000-188-1013.616211] 3.00 958.28 504638.38 505599.66 5.86 1019.12 1023007.53 1024032.50 3.36 973.75 844133.80 845110.91 177.56
[2000-246-2077.122070] 2.97 2015.39 504725.61 506743.97 5.90 2096.24 1023030.95 1025133.10 3.32 2041.91 844183.83 846229.06 79.87
[4000-314-3982.360352] 3.04 4016.87 504667.36 508687.27 6.25 4087.31 1023082.46 1027176.02 3.38 4038.78 844202.46 848244.62 45.48
[8000-397-7979.619141] 3.08 7980.86 504654.85 512638.79 6.26 8076.99 1022836.17 1030919.42 3.41 8016.09 844010.32 852029.82 23.02
[16000-501-16040.011719] 3.10 15953.52 504662.22 520618.85 6.80 16224.63 1022740.21 1038971.64 3.62 16028.63 844050.09 860082.34 12.14
[32000-527-31732.382812] 3.19 31638.58 504892.31 536534.08 6.14 31880.95 1023159.40 1055046.49 3.47 31808.76 844339.48 876151.72 6.63
[64000-589-66199.166992] 3.30 66006.55 505078.02 571087.87 8.12 66693.84 1022896.21 1089598.16 4.77 66503.46 844157.73 910665.96 3.69
[128000-657-128425.161133] 3.54 128156.91 505215.13 633375.58 8.18 128858.06 1022894.19 1151760.43 4.63 128732.10 844120.05 972856.78 2.39
[256000-787-256027.582031] 3.20 255130.23 506002.48 761135.91 9.61 256536.99 1023292.32 1279838.91 4.79 256383.85 844516.59 1100905.24 1.70
[512000-989-508422.401367] 3.12 506537.29 506859.16 1013399.57 8.42 509083.78 1022669.87 1531762.06 3.66 508665.67 844180.07 1352849.40 1.27
[1024000-1234-1019197.643555] 3.33 1017269.23 515252.93 1532525.49 12.12 1022436.05 1029857.46 2052305.63 3.96 1020718.58 852683.89 1873406.44 1.21



#collective:1 execution time:0h,12m,33s
